--  48x 48 12bit image color values

WIDTH = 12;
DEPTH = 2304;

ADDRESS_RADIX = UNS;
DATA_RADIX = UNS;

CONTENT BEGIN
   0 :    0;
   1 :    0;
   2 :    0;
   3 :    0;
   4 :    0;
   5 :    0;
   6 :    0;
   7 :    0;
   8 :    0;
   9 :    0;
  10 :    0;
  11 :    0;
  12 :    0;
  13 :    0;
  14 :    0;
  15 :    0;
  16 :    0;
  17 :    0;
  18 :  800;
  19 : 1601;
  20 : 2146;
  21 : 2690;
  22 : 2963;
  23 : 3219;
  24 : 3235;
  25 : 3219;
  26 : 2690;
  27 : 2402;
  28 : 1601;
  29 :  800;
  30 :  256;
  31 :    0;
  32 :    0;
  33 :    0;
  34 :    0;
  35 :    0;
  36 :    0;
  37 :    0;
  38 :    0;
  39 :    0;
  40 :    0;
  41 :    0;
  42 :    0;
  43 :    0;
  44 :    0;
  45 :    0;
  46 :    0;
  47 :    0;
  48 :    0;
  49 :    0;
  50 :    0;
  51 :    0;
  52 :    0;
  53 :    0;
  54 :    0;
  55 :    0;
  56 :    0;
  57 :    0;
  58 :    0;
  59 :    0;
  60 :    0;
  61 :    0;
  62 :    0;
  63 : 1072;
  64 : 2418;
  65 : 3235;
  66 : 3508;
  67 : 3780;
  68 : 3781;
  69 : 3781;
  70 : 3508;
  71 : 3508;
  72 : 3508;
  73 : 3508;
  74 : 3781;
  75 : 3781;
  76 : 3780;
  77 : 3508;
  78 : 3235;
  79 : 2674;
  80 : 1345;
  81 :  256;
  82 :    0;
  83 :    0;
  84 :    0;
  85 :    0;
  86 :    0;
  87 :    0;
  88 :    0;
  89 :    0;
  90 :    0;
  91 :    0;
  92 :    0;
  93 :    0;
  94 :    0;
  95 :    0;
  96 :    0;
  97 :    0;
  98 :    0;
  99 :    0;
 100 :    0;
 101 :    0;
 102 :    0;
 103 :    0;
 104 :    0;
 105 :    0;
 106 :    0;
 107 :    0;
 108 :    0;
 109 : 1601;
 110 : 2963;
 111 : 3764;
 112 : 3781;
 113 : 3508;
 114 : 3508;
 115 : 3508;
 116 : 3508;
 117 : 3525;
 118 : 3781;
 119 : 3781;
 120 : 3781;
 121 : 3781;
 122 : 3525;
 123 : 3508;
 124 : 3508;
 125 : 3508;
 126 : 3508;
 127 : 3781;
 128 : 3764;
 129 : 3219;
 130 : 1873;
 131 :  256;
 132 :    0;
 133 :    0;
 134 :    0;
 135 :    0;
 136 :    0;
 137 :    0;
 138 :    0;
 139 :    0;
 140 :    0;
 141 :    0;
 142 :    0;
 143 :    0;
 144 :    0;
 145 :    0;
 146 :    0;
 147 :    0;
 148 :    0;
 149 :    0;
 150 :    0;
 151 :    0;
 152 :    0;
 153 :    0;
 154 :    0;
 155 : 1072;
 156 : 2963;
 157 : 3764;
 158 : 3781;
 159 : 3508;
 160 : 3508;
 161 : 3781;
 162 : 3798;
 163 : 4070;
 164 : 4071;
 165 : 3798;
 166 : 3508;
 167 : 3508;
 168 : 3508;
 169 : 3508;
 170 : 3798;
 171 : 4071;
 172 : 4070;
 173 : 3798;
 174 : 3781;
 175 : 3508;
 176 : 3508;
 177 : 3781;
 178 : 3780;
 179 : 3219;
 180 : 1601;
 181 :    0;
 182 :    0;
 183 :    0;
 184 :    0;
 185 :    0;
 186 :    0;
 187 :    0;
 188 :    0;
 189 :    0;
 190 :    0;
 191 :    0;
 192 :    0;
 193 :    0;
 194 :    0;
 195 :    0;
 196 :    0;
 197 :    0;
 198 :    0;
 199 :    0;
 200 :    0;
 201 :  256;
 202 : 2402;
 203 : 3508;
 204 : 3781;
 205 : 3508;
 206 : 3508;
 207 : 3798;
 208 : 4071;
 209 : 4071;
 210 : 4071;
 211 : 4071;
 212 : 4071;
 213 : 3781;
 214 : 3218;
 215 : 3218;
 216 : 3218;
 217 : 3218;
 218 : 3781;
 219 : 4071;
 220 : 4071;
 221 : 4071;
 222 : 4071;
 223 : 4071;
 224 : 3798;
 225 : 3508;
 226 : 3508;
 227 : 3781;
 228 : 3764;
 229 : 2690;
 230 :  528;
 231 :    0;
 232 :    0;
 233 :    0;
 234 :    0;
 235 :    0;
 236 :    0;
 237 :    0;
 238 :    0;
 239 :    0;
 240 :    0;
 241 :    0;
 242 :    0;
 243 :    0;
 244 :    0;
 245 :    0;
 246 :    0;
 247 :    0;
 248 :  544;
 249 : 2963;
 250 : 3781;
 251 : 3508;
 252 : 3508;
 253 : 3798;
 254 : 4071;
 255 : 4071;
 256 : 4071;
 257 : 4071;
 258 : 4071;
 259 : 4071;
 260 : 4071;
 261 : 3797;
 262 : 3507;
 263 : 3523;
 264 : 3523;
 265 : 3779;
 266 : 3797;
 267 : 4071;
 268 : 4071;
 269 : 4071;
 270 : 4071;
 271 : 4071;
 272 : 4071;
 273 : 4071;
 274 : 3798;
 275 : 3508;
 276 : 3508;
 277 : 3781;
 278 : 3235;
 279 : 1072;
 280 :    0;
 281 :    0;
 282 :    0;
 283 :    0;
 284 :    0;
 285 :    0;
 286 :    0;
 287 :    0;
 288 :    0;
 289 :    0;
 290 :    0;
 291 :    0;
 292 :    0;
 293 :    0;
 294 :    0;
 295 :  800;
 296 : 3235;
 297 : 3781;
 298 : 3508;
 299 : 3525;
 300 : 4071;
 301 : 4071;
 302 : 4071;
 303 : 4071;
 304 : 4071;
 305 : 4071;
 306 : 4071;
 307 : 4071;
 308 : 4087;
 309 : 3797;
 310 : 3235;
 311 : 3251;
 312 : 3251;
 313 : 3507;
 314 : 3797;
 315 : 4087;
 316 : 4071;
 317 : 4071;
 318 : 4071;
 319 : 4071;
 320 : 4071;
 321 : 4071;
 322 : 4071;
 323 : 4071;
 324 : 3781;
 325 : 3508;
 326 : 3781;
 327 : 3492;
 328 : 1345;
 329 :    0;
 330 :    0;
 331 :    0;
 332 :    0;
 333 :    0;
 334 :    0;
 335 :    0;
 336 :    0;
 337 :    0;
 338 :    0;
 339 :    0;
 340 :    0;
 341 :    0;
 342 :  800;
 343 : 3491;
 344 : 3781;
 345 : 3508;
 346 : 3781;
 347 : 4071;
 348 : 4071;
 349 : 4071;
 350 : 4071;
 351 : 4071;
 352 : 4071;
 353 : 4071;
 354 : 4071;
 355 : 3798;
 356 : 3781;
 357 : 3491;
 358 : 3235;
 359 : 3507;
 360 : 3251;
 361 : 3523;
 362 : 3491;
 363 : 3508;
 364 : 3781;
 365 : 3798;
 366 : 4071;
 367 : 4071;
 368 : 4071;
 369 : 4071;
 370 : 4071;
 371 : 4071;
 372 : 4071;
 373 : 3798;
 374 : 3508;
 375 : 3781;
 376 : 3508;
 377 : 1601;
 378 :    0;
 379 :    0;
 380 :    0;
 381 :    0;
 382 :    0;
 383 :    0;
 384 :    0;
 385 :    0;
 386 :    0;
 387 :    0;
 388 :    0;
 389 :  528;
 390 : 3235;
 391 : 3781;
 392 : 3508;
 393 : 3798;
 394 : 4071;
 395 : 4071;
 396 : 4071;
 397 : 4071;
 398 : 4071;
 399 : 4071;
 400 : 4071;
 401 : 3798;
 402 : 3492;
 403 : 3218;
 404 : 3218;
 405 : 3235;
 406 : 3507;
 407 : 3507;
 408 : 3251;
 409 : 3523;
 410 : 3507;
 411 : 3491;
 412 : 3234;
 413 : 3219;
 414 : 3491;
 415 : 3781;
 416 : 4071;
 417 : 4071;
 418 : 4071;
 419 : 4071;
 420 : 4071;
 421 : 4071;
 422 : 3798;
 423 : 3508;
 424 : 3781;
 425 : 3492;
 426 : 1072;
 427 :    0;
 428 :    0;
 429 :    0;
 430 :    0;
 431 :    0;
 432 :    0;
 433 :    0;
 434 :    0;
 435 :    0;
 436 :  256;
 437 : 2963;
 438 : 3781;
 439 : 3508;
 440 : 3798;
 441 : 4071;
 442 : 4071;
 443 : 4071;
 444 : 4071;
 445 : 4071;
 446 : 4071;
 447 : 4071;
 448 : 3781;
 449 : 3218;
 450 : 3218;
 451 : 3251;
 452 : 3507;
 453 : 3507;
 454 : 3507;
 455 : 3507;
 456 : 3507;
 457 : 3507;
 458 : 3507;
 459 : 3507;
 460 : 3779;
 461 : 3779;
 462 : 3507;
 463 : 3218;
 464 : 3491;
 465 : 3798;
 466 : 4071;
 467 : 4071;
 468 : 4071;
 469 : 4071;
 470 : 4071;
 471 : 3798;
 472 : 3508;
 473 : 3781;
 474 : 3235;
 475 :  528;
 476 :    0;
 477 :    0;
 478 :    0;
 479 :    0;
 480 :    0;
 481 :    0;
 482 :    0;
 483 :    0;
 484 : 2146;
 485 : 3781;
 486 : 3508;
 487 : 3781;
 488 : 4071;
 489 : 4071;
 490 : 4071;
 491 : 4071;
 492 : 4071;
 493 : 4071;
 494 : 4071;
 495 : 3797;
 496 : 3218;
 497 : 3235;
 498 : 3507;
 499 : 3507;
 500 : 3507;
 501 : 3507;
 502 : 3507;
 503 : 3507;
 504 : 3507;
 505 : 3507;
 506 : 3251;
 507 : 3251;
 508 : 3251;
 509 : 3507;
 510 : 3507;
 511 : 3779;
 512 : 3490;
 513 : 3508;
 514 : 4071;
 515 : 4071;
 516 : 4071;
 517 : 4071;
 518 : 4071;
 519 : 4071;
 520 : 3798;
 521 : 3508;
 522 : 3781;
 523 : 2690;
 524 :    0;
 525 :    0;
 526 :    0;
 527 :    0;
 528 :    0;
 529 :    0;
 530 :    0;
 531 : 1072;
 532 : 3508;
 533 : 3508;
 534 : 3525;
 535 : 4071;
 536 : 4071;
 537 : 4071;
 538 : 4071;
 539 : 4071;
 540 : 4071;
 541 : 4071;
 542 : 4070;
 543 : 3219;
 544 : 3235;
 545 : 3507;
 546 : 3507;
 547 : 3507;
 548 : 3507;
 549 : 3251;
 550 : 3251;
 551 : 3251;
 552 : 3507;
 553 : 3507;
 554 : 3251;
 555 : 3251;
 556 : 3507;
 557 : 3507;
 558 : 3251;
 559 : 3507;
 560 : 3780;
 561 : 4071;
 562 : 4071;
 563 : 4071;
 564 : 4071;
 565 : 4071;
 566 : 4071;
 567 : 4071;
 568 : 4071;
 569 : 3781;
 570 : 3508;
 571 : 3764;
 572 : 1617;
 573 :    0;
 574 :    0;
 575 :    0;
 576 :    0;
 577 :    0;
 578 :    0;
 579 : 2947;
 580 : 3781;
 581 : 3508;
 582 : 4071;
 583 : 4071;
 584 : 4071;
 585 : 4071;
 586 : 4071;
 587 : 4071;
 588 : 4071;
 589 : 4071;
 590 : 3781;
 591 : 3218;
 592 : 3507;
 593 : 3507;
 594 : 3507;
 595 : 3507;
 596 : 3251;
 597 : 3508;
 598 : 3781;
 599 : 3798;
 600 : 3798;
 601 : 3798;
 602 : 3797;
 603 : 3524;
 604 : 3507;
 605 : 3251;
 606 : 3251;
 607 : 3507;
 608 : 3798;
 609 : 4071;
 610 : 4071;
 611 : 4071;
 612 : 4071;
 613 : 4071;
 614 : 4071;
 615 : 4071;
 616 : 4071;
 617 : 4071;
 618 : 3508;
 619 : 3781;
 620 : 3235;
 621 :  528;
 622 :    0;
 623 :    0;
 624 :    0;
 625 :    0;
 626 : 1345;
 627 : 3764;
 628 : 3508;
 629 : 3797;
 630 : 4071;
 631 : 4071;
 632 : 4071;
 633 : 4071;
 634 : 4071;
 635 : 4071;
 636 : 4071;
 637 : 4071;
 638 : 3492;
 639 : 3234;
 640 : 3507;
 641 : 3507;
 642 : 3507;
 643 : 3251;
 644 : 3524;
 645 : 4071;
 646 : 4071;
 647 : 4071;
 648 : 4071;
 649 : 4071;
 650 : 4071;
 651 : 4071;
 652 : 4070;
 653 : 3797;
 654 : 3507;
 655 : 3797;
 656 : 4071;
 657 : 4071;
 658 : 4071;
 659 : 4071;
 660 : 4071;
 661 : 4071;
 662 : 4071;
 663 : 4071;
 664 : 4071;
 665 : 4071;
 666 : 3798;
 667 : 3508;
 668 : 3780;
 669 : 2145;
 670 :    0;
 671 :    0;
 672 :    0;
 673 :    0;
 674 : 2947;
 675 : 3781;
 676 : 3508;
 677 : 4071;
 678 : 4071;
 679 : 4071;
 680 : 4071;
 681 : 4071;
 682 : 4071;
 683 : 4071;
 684 : 4071;
 685 : 4071;
 686 : 3219;
 687 : 3235;
 688 : 3507;
 689 : 3507;
 690 : 3251;
 691 : 3508;
 692 : 4071;
 693 : 4071;
 694 : 4071;
 695 : 4071;
 696 : 4071;
 697 : 4071;
 698 : 4071;
 699 : 4071;
 700 : 4071;
 701 : 4071;
 702 : 4070;
 703 : 4071;
 704 : 4071;
 705 : 4071;
 706 : 4071;
 707 : 4071;
 708 : 4071;
 709 : 4071;
 710 : 4071;
 711 : 4071;
 712 : 4071;
 713 : 4071;
 714 : 4071;
 715 : 3508;
 716 : 3781;
 717 : 3235;
 718 :  272;
 719 :    0;
 720 :    0;
 721 :  800;
 722 : 3508;
 723 : 3508;
 724 : 3797;
 725 : 4071;
 726 : 4071;
 727 : 4071;
 728 : 4071;
 729 : 4071;
 730 : 4071;
 731 : 4071;
 732 : 4071;
 733 : 4070;
 734 : 3218;
 735 : 3235;
 736 : 3507;
 737 : 3507;
 738 : 3251;
 739 : 3781;
 740 : 4071;
 741 : 4071;
 742 : 4071;
 743 : 4071;
 744 : 4071;
 745 : 4071;
 746 : 4071;
 747 : 4071;
 748 : 4071;
 749 : 4071;
 750 : 4071;
 751 : 4071;
 752 : 4071;
 753 : 4071;
 754 : 4071;
 755 : 4071;
 756 : 4071;
 757 : 4071;
 758 : 4071;
 759 : 4071;
 760 : 4071;
 761 : 4071;
 762 : 4071;
 763 : 3798;
 764 : 3508;
 765 : 3764;
 766 : 1601;
 767 :    0;
 768 :    0;
 769 : 2145;
 770 : 3781;
 771 : 3508;
 772 : 4071;
 773 : 4071;
 774 : 4071;
 775 : 4071;
 776 : 4071;
 777 : 4071;
 778 : 4071;
 779 : 4071;
 780 : 4071;
 781 : 3798;
 782 : 3218;
 783 : 3507;
 784 : 3507;
 785 : 3507;
 786 : 3251;
 787 : 3797;
 788 : 4071;
 789 : 4071;
 790 : 4071;
 791 : 4071;
 792 : 4071;
 793 : 4071;
 794 : 4071;
 795 : 4071;
 796 : 4071;
 797 : 4071;
 798 : 4071;
 799 : 4071;
 800 : 4071;
 801 : 4071;
 802 : 4071;
 803 : 4071;
 804 : 4071;
 805 : 4071;
 806 : 4071;
 807 : 4071;
 808 : 4071;
 809 : 4071;
 810 : 4071;
 811 : 4071;
 812 : 3508;
 813 : 3781;
 814 : 2690;
 815 :    0;
 816 :    0;
 817 : 2963;
 818 : 3508;
 819 : 3525;
 820 : 4071;
 821 : 4071;
 822 : 4071;
 823 : 4071;
 824 : 4071;
 825 : 4071;
 826 : 4071;
 827 : 4071;
 828 : 4071;
 829 : 3798;
 830 : 3218;
 831 : 3507;
 832 : 3507;
 833 : 3251;
 834 : 3251;
 835 : 3797;
 836 : 4071;
 837 : 4071;
 838 : 4071;
 839 : 4071;
 840 : 4071;
 841 : 4071;
 842 : 4071;
 843 : 4071;
 844 : 4071;
 845 : 4071;
 846 : 4071;
 847 : 4071;
 848 : 4071;
 849 : 4071;
 850 : 4071;
 851 : 4071;
 852 : 4071;
 853 : 4071;
 854 : 4071;
 855 : 4071;
 856 : 4071;
 857 : 4071;
 858 : 4071;
 859 : 4071;
 860 : 3781;
 861 : 3525;
 862 : 3491;
 863 :  528;
 864 :  528;
 865 : 3508;
 866 : 3508;
 867 : 3798;
 868 : 4071;
 869 : 4071;
 870 : 4071;
 871 : 4071;
 872 : 4071;
 873 : 4071;
 874 : 4071;
 875 : 4071;
 876 : 4071;
 877 : 4070;
 878 : 3218;
 879 : 3507;
 880 : 3507;
 881 : 3251;
 882 : 3251;
 883 : 3524;
 884 : 4071;
 885 : 4071;
 886 : 4071;
 887 : 4071;
 888 : 4071;
 889 : 4071;
 890 : 4071;
 891 : 4071;
 892 : 4071;
 893 : 4071;
 894 : 4071;
 895 : 4071;
 896 : 4071;
 897 : 4071;
 898 : 4071;
 899 : 4071;
 900 : 4071;
 901 : 4071;
 902 : 4071;
 903 : 4071;
 904 : 4071;
 905 : 4071;
 906 : 4071;
 907 : 4071;
 908 : 3798;
 909 : 3508;
 910 : 3764;
 911 : 1072;
 912 : 1328;
 913 : 3780;
 914 : 3508;
 915 : 4070;
 916 : 4071;
 917 : 4071;
 918 : 4071;
 919 : 4071;
 920 : 4071;
 921 : 4071;
 922 : 4071;
 923 : 4071;
 924 : 4071;
 925 : 4071;
 926 : 3219;
 927 : 3507;
 928 : 3507;
 929 : 3251;
 930 : 3507;
 931 : 3251;
 932 : 3797;
 933 : 4071;
 934 : 4071;
 935 : 4071;
 936 : 4071;
 937 : 4071;
 938 : 4071;
 939 : 4071;
 940 : 4071;
 941 : 4071;
 942 : 4071;
 943 : 4071;
 944 : 4071;
 945 : 4071;
 946 : 4071;
 947 : 4071;
 948 : 4071;
 949 : 4071;
 950 : 4071;
 951 : 4071;
 952 : 4071;
 953 : 4071;
 954 : 4071;
 955 : 4071;
 956 : 4071;
 957 : 3508;
 958 : 3781;
 959 : 1873;
 960 : 1873;
 961 : 3781;
 962 : 3508;
 963 : 4071;
 964 : 4071;
 965 : 4071;
 966 : 4071;
 967 : 4071;
 968 : 4071;
 969 : 4071;
 970 : 4071;
 971 : 4071;
 972 : 4071;
 973 : 4071;
 974 : 3508;
 975 : 3234;
 976 : 3779;
 977 : 3507;
 978 : 3507;
 979 : 3507;
 980 : 3251;
 981 : 3524;
 982 : 3797;
 983 : 4070;
 984 : 4071;
 985 : 4071;
 986 : 4071;
 987 : 4071;
 988 : 4071;
 989 : 4071;
 990 : 4071;
 991 : 4071;
 992 : 4071;
 993 : 4071;
 994 : 4071;
 995 : 4071;
 996 : 4071;
 997 : 4071;
 998 : 4071;
 999 : 4071;
1000 : 4071;
1001 : 4071;
1002 : 4071;
1003 : 4071;
1004 : 4071;
1005 : 3508;
1006 : 3781;
1007 : 2674;
1008 : 2418;
1009 : 3781;
1010 : 3508;
1011 : 4071;
1012 : 4071;
1013 : 4071;
1014 : 4071;
1015 : 4071;
1016 : 4071;
1017 : 4071;
1018 : 4071;
1019 : 4071;
1020 : 4071;
1021 : 4071;
1022 : 3798;
1023 : 3218;
1024 : 3507;
1025 : 3507;
1026 : 3251;
1027 : 3507;
1028 : 3507;
1029 : 3251;
1030 : 3251;
1031 : 3507;
1032 : 3524;
1033 : 3781;
1034 : 3797;
1035 : 4070;
1036 : 4071;
1037 : 4071;
1038 : 4071;
1039 : 4071;
1040 : 4071;
1041 : 4071;
1042 : 4071;
1043 : 4071;
1044 : 4071;
1045 : 4071;
1046 : 4071;
1047 : 4071;
1048 : 4071;
1049 : 4071;
1050 : 4071;
1051 : 4071;
1052 : 4071;
1053 : 3525;
1054 : 3525;
1055 : 3219;
1056 : 2690;
1057 : 3780;
1058 : 3508;
1059 : 4071;
1060 : 4071;
1061 : 4071;
1062 : 4071;
1063 : 4071;
1064 : 4071;
1065 : 4071;
1066 : 4071;
1067 : 4071;
1068 : 4071;
1069 : 4071;
1070 : 4071;
1071 : 3508;
1072 : 3218;
1073 : 3507;
1074 : 3523;
1075 : 3507;
1076 : 3251;
1077 : 3251;
1078 : 3507;
1079 : 3507;
1080 : 3251;
1081 : 3251;
1082 : 3251;
1083 : 3507;
1084 : 3524;
1085 : 3797;
1086 : 4070;
1087 : 4071;
1088 : 4071;
1089 : 4071;
1090 : 4071;
1091 : 4071;
1092 : 4071;
1093 : 4071;
1094 : 4071;
1095 : 4071;
1096 : 4071;
1097 : 4071;
1098 : 4071;
1099 : 4071;
1100 : 4071;
1101 : 3781;
1102 : 3525;
1103 : 3235;
1104 : 2946;
1105 : 3508;
1106 : 3525;
1107 : 4071;
1108 : 4071;
1109 : 4071;
1110 : 4071;
1111 : 4071;
1112 : 4071;
1113 : 4071;
1114 : 4071;
1115 : 4071;
1116 : 4071;
1117 : 4071;
1118 : 4071;
1119 : 4071;
1120 : 3508;
1121 : 3218;
1122 : 3507;
1123 : 3779;
1124 : 3523;
1125 : 3507;
1126 : 3507;
1127 : 3507;
1128 : 3251;
1129 : 3251;
1130 : 3251;
1131 : 3507;
1132 : 3251;
1133 : 3251;
1134 : 3507;
1135 : 3797;
1136 : 4071;
1137 : 4071;
1138 : 4071;
1139 : 4071;
1140 : 4071;
1141 : 4071;
1142 : 4071;
1143 : 4071;
1144 : 4071;
1145 : 4071;
1146 : 4071;
1147 : 4071;
1148 : 4071;
1149 : 3781;
1150 : 3525;
1151 : 3235;
1152 : 2946;
1153 : 3508;
1154 : 3525;
1155 : 4071;
1156 : 4071;
1157 : 4071;
1158 : 4071;
1159 : 4071;
1160 : 4071;
1161 : 4071;
1162 : 4071;
1163 : 4071;
1164 : 4071;
1165 : 4071;
1166 : 4071;
1167 : 4071;
1168 : 4071;
1169 : 3781;
1170 : 3235;
1171 : 3235;
1172 : 3491;
1173 : 3507;
1174 : 3507;
1175 : 3779;
1176 : 3523;
1177 : 3507;
1178 : 3507;
1179 : 3507;
1180 : 3251;
1181 : 3507;
1182 : 3251;
1183 : 3251;
1184 : 3797;
1185 : 4071;
1186 : 4071;
1187 : 4071;
1188 : 4071;
1189 : 4071;
1190 : 4071;
1191 : 4071;
1192 : 4071;
1193 : 4071;
1194 : 4071;
1195 : 4071;
1196 : 4071;
1197 : 3781;
1198 : 3525;
1199 : 3235;
1200 : 2690;
1201 : 3780;
1202 : 3508;
1203 : 4071;
1204 : 4071;
1205 : 4071;
1206 : 4071;
1207 : 4071;
1208 : 4071;
1209 : 4071;
1210 : 4071;
1211 : 4071;
1212 : 4071;
1213 : 4071;
1214 : 4071;
1215 : 4071;
1216 : 4071;
1217 : 4071;
1218 : 4071;
1219 : 3798;
1220 : 3525;
1221 : 3492;
1222 : 3235;
1223 : 3235;
1224 : 3235;
1225 : 3507;
1226 : 3507;
1227 : 3779;
1228 : 3507;
1229 : 3507;
1230 : 3507;
1231 : 3507;
1232 : 3507;
1233 : 3798;
1234 : 4071;
1235 : 4071;
1236 : 4071;
1237 : 4071;
1238 : 4071;
1239 : 4071;
1240 : 4071;
1241 : 4071;
1242 : 4071;
1243 : 4071;
1244 : 4071;
1245 : 3781;
1246 : 3525;
1247 : 3235;
1248 : 2418;
1249 : 3781;
1250 : 3508;
1251 : 4071;
1252 : 4071;
1253 : 4071;
1254 : 4071;
1255 : 4071;
1256 : 4071;
1257 : 4071;
1258 : 4071;
1259 : 4071;
1260 : 4071;
1261 : 4071;
1262 : 4071;
1263 : 4071;
1264 : 4071;
1265 : 4071;
1266 : 4071;
1267 : 4071;
1268 : 4071;
1269 : 4071;
1270 : 4071;
1271 : 3798;
1272 : 3781;
1273 : 3508;
1274 : 3491;
1275 : 3235;
1276 : 3507;
1277 : 3779;
1278 : 3507;
1279 : 3507;
1280 : 3251;
1281 : 3508;
1282 : 4071;
1283 : 4071;
1284 : 4071;
1285 : 4071;
1286 : 4071;
1287 : 4071;
1288 : 4071;
1289 : 4071;
1290 : 4071;
1291 : 4071;
1292 : 4071;
1293 : 3525;
1294 : 3525;
1295 : 3219;
1296 : 1873;
1297 : 3781;
1298 : 3508;
1299 : 4071;
1300 : 4071;
1301 : 4071;
1302 : 4071;
1303 : 4071;
1304 : 4071;
1305 : 4071;
1306 : 4071;
1307 : 4071;
1308 : 4071;
1309 : 4071;
1310 : 4071;
1311 : 4071;
1312 : 4071;
1313 : 4071;
1314 : 4071;
1315 : 4071;
1316 : 4071;
1317 : 4071;
1318 : 4071;
1319 : 4071;
1320 : 4071;
1321 : 4071;
1322 : 4071;
1323 : 3798;
1324 : 3491;
1325 : 3507;
1326 : 3523;
1327 : 3251;
1328 : 3507;
1329 : 3235;
1330 : 3798;
1331 : 4071;
1332 : 4071;
1333 : 4071;
1334 : 4071;
1335 : 4071;
1336 : 4071;
1337 : 4071;
1338 : 4071;
1339 : 4071;
1340 : 4071;
1341 : 3508;
1342 : 3781;
1343 : 2674;
1344 : 1072;
1345 : 3780;
1346 : 3508;
1347 : 4070;
1348 : 4071;
1349 : 4071;
1350 : 4071;
1351 : 4071;
1352 : 4071;
1353 : 4071;
1354 : 4071;
1355 : 4071;
1356 : 4071;
1357 : 4071;
1358 : 4071;
1359 : 4071;
1360 : 4071;
1361 : 4071;
1362 : 4071;
1363 : 4071;
1364 : 4071;
1365 : 4071;
1366 : 4071;
1367 : 4071;
1368 : 4071;
1369 : 4071;
1370 : 4071;
1371 : 4071;
1372 : 4071;
1373 : 3508;
1374 : 3523;
1375 : 3507;
1376 : 3507;
1377 : 3235;
1378 : 3524;
1379 : 4071;
1380 : 4071;
1381 : 4071;
1382 : 4071;
1383 : 4071;
1384 : 4071;
1385 : 4071;
1386 : 4071;
1387 : 4071;
1388 : 4071;
1389 : 3508;
1390 : 3781;
1391 : 1873;
1392 :  528;
1393 : 3508;
1394 : 3508;
1395 : 3797;
1396 : 4071;
1397 : 4071;
1398 : 4071;
1399 : 4071;
1400 : 4071;
1401 : 4071;
1402 : 4071;
1403 : 4071;
1404 : 4071;
1405 : 4071;
1406 : 4071;
1407 : 4071;
1408 : 4071;
1409 : 4071;
1410 : 4071;
1411 : 4071;
1412 : 4071;
1413 : 4071;
1414 : 4071;
1415 : 4071;
1416 : 4071;
1417 : 4071;
1418 : 4071;
1419 : 4071;
1420 : 4071;
1421 : 3798;
1422 : 3507;
1423 : 3507;
1424 : 3507;
1425 : 3251;
1426 : 3508;
1427 : 4071;
1428 : 4071;
1429 : 4071;
1430 : 4071;
1431 : 4071;
1432 : 4071;
1433 : 4071;
1434 : 4071;
1435 : 4071;
1436 : 3798;
1437 : 3508;
1438 : 3764;
1439 : 1072;
1440 :    0;
1441 : 2963;
1442 : 3508;
1443 : 3509;
1444 : 4071;
1445 : 4071;
1446 : 4071;
1447 : 4071;
1448 : 4071;
1449 : 4071;
1450 : 4071;
1451 : 4071;
1452 : 4071;
1453 : 4071;
1454 : 4071;
1455 : 4071;
1456 : 4071;
1457 : 4071;
1458 : 4071;
1459 : 4071;
1460 : 4071;
1461 : 4071;
1462 : 4071;
1463 : 4071;
1464 : 4071;
1465 : 4071;
1466 : 4071;
1467 : 4071;
1468 : 4071;
1469 : 3798;
1470 : 3251;
1471 : 3507;
1472 : 3507;
1473 : 3251;
1474 : 3491;
1475 : 4071;
1476 : 4071;
1477 : 4071;
1478 : 4071;
1479 : 4071;
1480 : 4071;
1481 : 4071;
1482 : 4071;
1483 : 4071;
1484 : 3781;
1485 : 3525;
1486 : 3491;
1487 :  272;
1488 :    0;
1489 : 2145;
1490 : 3781;
1491 : 3508;
1492 : 4070;
1493 : 4071;
1494 : 4071;
1495 : 4071;
1496 : 4071;
1497 : 4071;
1498 : 4071;
1499 : 4071;
1500 : 4071;
1501 : 4071;
1502 : 4071;
1503 : 4071;
1504 : 3781;
1505 : 4070;
1506 : 4071;
1507 : 4071;
1508 : 4071;
1509 : 4071;
1510 : 4071;
1511 : 4071;
1512 : 4071;
1513 : 4071;
1514 : 4071;
1515 : 4071;
1516 : 4071;
1517 : 3797;
1518 : 3251;
1519 : 3507;
1520 : 3507;
1521 : 3251;
1522 : 3491;
1523 : 4071;
1524 : 4071;
1525 : 4071;
1526 : 4071;
1527 : 4071;
1528 : 4071;
1529 : 4071;
1530 : 4071;
1531 : 4071;
1532 : 3508;
1533 : 3781;
1534 : 2690;
1535 :    0;
1536 :    0;
1537 :  800;
1538 : 3508;
1539 : 3508;
1540 : 3781;
1541 : 4071;
1542 : 4071;
1543 : 4071;
1544 : 4071;
1545 : 4071;
1546 : 4071;
1547 : 4071;
1548 : 4071;
1549 : 4071;
1550 : 4071;
1551 : 3781;
1552 : 3251;
1553 : 3508;
1554 : 4070;
1555 : 4071;
1556 : 4071;
1557 : 4071;
1558 : 4071;
1559 : 4071;
1560 : 4071;
1561 : 4071;
1562 : 4071;
1563 : 4071;
1564 : 4071;
1565 : 3524;
1566 : 3251;
1567 : 3251;
1568 : 3507;
1569 : 3507;
1570 : 3492;
1571 : 4071;
1572 : 4071;
1573 : 4071;
1574 : 4071;
1575 : 4071;
1576 : 4071;
1577 : 4071;
1578 : 4071;
1579 : 3798;
1580 : 3508;
1581 : 3764;
1582 : 1601;
1583 :    0;
1584 :    0;
1585 :    0;
1586 : 2947;
1587 : 3781;
1588 : 3508;
1589 : 4071;
1590 : 4071;
1591 : 4071;
1592 : 4071;
1593 : 4071;
1594 : 4071;
1595 : 4071;
1596 : 4071;
1597 : 4071;
1598 : 3797;
1599 : 3251;
1600 : 3507;
1601 : 3251;
1602 : 3507;
1603 : 3797;
1604 : 4071;
1605 : 4071;
1606 : 4071;
1607 : 4071;
1608 : 4071;
1609 : 4071;
1610 : 4071;
1611 : 4071;
1612 : 3781;
1613 : 3251;
1614 : 3507;
1615 : 3251;
1616 : 3779;
1617 : 3235;
1618 : 3508;
1619 : 4071;
1620 : 4071;
1621 : 4071;
1622 : 4071;
1623 : 4071;
1624 : 4071;
1625 : 4071;
1626 : 4071;
1627 : 3508;
1628 : 3781;
1629 : 3235;
1630 :  272;
1631 :    0;
1632 :    0;
1633 :    0;
1634 : 1345;
1635 : 3764;
1636 : 3508;
1637 : 3781;
1638 : 4071;
1639 : 4071;
1640 : 4071;
1641 : 4071;
1642 : 4071;
1643 : 4071;
1644 : 4071;
1645 : 3798;
1646 : 3507;
1647 : 3507;
1648 : 3507;
1649 : 3507;
1650 : 3251;
1651 : 3251;
1652 : 3508;
1653 : 3781;
1654 : 3797;
1655 : 3798;
1656 : 3798;
1657 : 3797;
1658 : 3781;
1659 : 3508;
1660 : 3251;
1661 : 3507;
1662 : 3251;
1663 : 3507;
1664 : 3523;
1665 : 3218;
1666 : 3781;
1667 : 4071;
1668 : 4071;
1669 : 4071;
1670 : 4071;
1671 : 4071;
1672 : 4071;
1673 : 4071;
1674 : 3798;
1675 : 3508;
1676 : 3780;
1677 : 2145;
1678 :    0;
1679 :    0;
1680 :    0;
1681 :    0;
1682 :    0;
1683 : 2947;
1684 : 3781;
1685 : 3508;
1686 : 4070;
1687 : 4071;
1688 : 4071;
1689 : 4071;
1690 : 4071;
1691 : 4071;
1692 : 3798;
1693 : 3218;
1694 : 3218;
1695 : 3251;
1696 : 3507;
1697 : 3507;
1698 : 3507;
1699 : 3507;
1700 : 3251;
1701 : 3251;
1702 : 3251;
1703 : 3251;
1704 : 3251;
1705 : 3251;
1706 : 3251;
1707 : 3251;
1708 : 3251;
1709 : 3251;
1710 : 3507;
1711 : 3779;
1712 : 3235;
1713 : 3218;
1714 : 4070;
1715 : 4071;
1716 : 4071;
1717 : 4071;
1718 : 4071;
1719 : 4071;
1720 : 4071;
1721 : 4071;
1722 : 3508;
1723 : 3781;
1724 : 3235;
1725 :  528;
1726 :    0;
1727 :    0;
1728 :    0;
1729 :    0;
1730 :    0;
1731 : 1072;
1732 : 3508;
1733 : 3508;
1734 : 3508;
1735 : 4071;
1736 : 4071;
1737 : 4071;
1738 : 4071;
1739 : 4071;
1740 : 4070;
1741 : 3235;
1742 : 3202;
1743 : 3218;
1744 : 3235;
1745 : 3507;
1746 : 3507;
1747 : 3507;
1748 : 3507;
1749 : 3507;
1750 : 3507;
1751 : 3507;
1752 : 3507;
1753 : 3251;
1754 : 3251;
1755 : 3507;
1756 : 3507;
1757 : 3523;
1758 : 3779;
1759 : 3235;
1760 : 3202;
1761 : 3508;
1762 : 4071;
1763 : 4071;
1764 : 4071;
1765 : 4071;
1766 : 4071;
1767 : 4071;
1768 : 4071;
1769 : 3781;
1770 : 3508;
1771 : 3764;
1772 : 1617;
1773 :    0;
1774 :    0;
1775 :    0;
1776 :    0;
1777 :    0;
1778 :    0;
1779 :    0;
1780 : 2145;
1781 : 3781;
1782 : 3508;
1783 : 3781;
1784 : 4071;
1785 : 4071;
1786 : 4071;
1787 : 4071;
1788 : 4071;
1789 : 4070;
1790 : 3491;
1791 : 3202;
1792 : 3218;
1793 : 3235;
1794 : 3235;
1795 : 3507;
1796 : 3507;
1797 : 3507;
1798 : 3507;
1799 : 3507;
1800 : 3507;
1801 : 3507;
1802 : 3779;
1803 : 3779;
1804 : 3523;
1805 : 3507;
1806 : 3235;
1807 : 3202;
1808 : 3491;
1809 : 4071;
1810 : 4071;
1811 : 4071;
1812 : 4071;
1813 : 4071;
1814 : 4071;
1815 : 4071;
1816 : 3798;
1817 : 3508;
1818 : 3781;
1819 : 2690;
1820 :    0;
1821 :    0;
1822 :    0;
1823 :    0;
1824 :    0;
1825 :    0;
1826 :    0;
1827 :    0;
1828 :  256;
1829 : 2947;
1830 : 3781;
1831 : 3508;
1832 : 3798;
1833 : 4071;
1834 : 4071;
1835 : 4071;
1836 : 4071;
1837 : 4071;
1838 : 4071;
1839 : 3781;
1840 : 3218;
1841 : 3202;
1842 : 3218;
1843 : 3218;
1844 : 3235;
1845 : 3235;
1846 : 3507;
1847 : 3507;
1848 : 3507;
1849 : 3779;
1850 : 3507;
1851 : 3235;
1852 : 3218;
1853 : 3218;
1854 : 3202;
1855 : 3492;
1856 : 4070;
1857 : 4071;
1858 : 4071;
1859 : 4071;
1860 : 4071;
1861 : 4071;
1862 : 4071;
1863 : 3798;
1864 : 3508;
1865 : 3781;
1866 : 3235;
1867 :  528;
1868 :    0;
1869 :    0;
1870 :    0;
1871 :    0;
1872 :    0;
1873 :    0;
1874 :    0;
1875 :    0;
1876 :    0;
1877 :  528;
1878 : 3235;
1879 : 3781;
1880 : 3508;
1881 : 3798;
1882 : 4071;
1883 : 4071;
1884 : 4071;
1885 : 4071;
1886 : 4071;
1887 : 4071;
1888 : 4070;
1889 : 3508;
1890 : 3219;
1891 : 3202;
1892 : 3202;
1893 : 3218;
1894 : 3235;
1895 : 3507;
1896 : 3507;
1897 : 3523;
1898 : 3218;
1899 : 3202;
1900 : 3218;
1901 : 3235;
1902 : 3781;
1903 : 4071;
1904 : 4071;
1905 : 4071;
1906 : 4071;
1907 : 4071;
1908 : 4071;
1909 : 4071;
1910 : 3798;
1911 : 3508;
1912 : 3781;
1913 : 3508;
1914 : 1072;
1915 :    0;
1916 :    0;
1917 :    0;
1918 :    0;
1919 :    0;
1920 :    0;
1921 :    0;
1922 :    0;
1923 :    0;
1924 :    0;
1925 :    0;
1926 :  800;
1927 : 3491;
1928 : 3781;
1929 : 3508;
1930 : 3781;
1931 : 4071;
1932 : 4071;
1933 : 4071;
1934 : 4071;
1935 : 4071;
1936 : 4071;
1937 : 4071;
1938 : 4071;
1939 : 3798;
1940 : 3508;
1941 : 3235;
1942 : 3235;
1943 : 3507;
1944 : 3507;
1945 : 3523;
1946 : 3508;
1947 : 3781;
1948 : 3798;
1949 : 4071;
1950 : 4071;
1951 : 4071;
1952 : 4071;
1953 : 4071;
1954 : 4071;
1955 : 4071;
1956 : 4071;
1957 : 3798;
1958 : 3508;
1959 : 3781;
1960 : 3508;
1961 : 1345;
1962 :    0;
1963 :    0;
1964 :    0;
1965 :    0;
1966 :    0;
1967 :    0;
1968 :    0;
1969 :    0;
1970 :    0;
1971 :    0;
1972 :    0;
1973 :    0;
1974 :    0;
1975 :  800;
1976 : 3235;
1977 : 3781;
1978 : 3508;
1979 : 3508;
1980 : 4070;
1981 : 4071;
1982 : 4071;
1983 : 4071;
1984 : 4071;
1985 : 4071;
1986 : 4071;
1987 : 4071;
1988 : 4087;
1989 : 3797;
1990 : 3235;
1991 : 3523;
1992 : 3779;
1993 : 3507;
1994 : 3797;
1995 : 4087;
1996 : 4071;
1997 : 4071;
1998 : 4071;
1999 : 4071;
2000 : 4071;
2001 : 4071;
2002 : 4071;
2003 : 4071;
2004 : 3781;
2005 : 3508;
2006 : 3781;
2007 : 3492;
2008 : 1345;
2009 :    0;
2010 :    0;
2011 :    0;
2012 :    0;
2013 :    0;
2014 :    0;
2015 :    0;
2016 :    0;
2017 :    0;
2018 :    0;
2019 :    0;
2020 :    0;
2021 :    0;
2022 :    0;
2023 :    0;
2024 :  528;
2025 : 2963;
2026 : 3781;
2027 : 3508;
2028 : 3508;
2029 : 3797;
2030 : 4071;
2031 : 4071;
2032 : 4071;
2033 : 4071;
2034 : 4071;
2035 : 4071;
2036 : 4071;
2037 : 3797;
2038 : 3218;
2039 : 3218;
2040 : 3218;
2041 : 3218;
2042 : 3781;
2043 : 4071;
2044 : 4071;
2045 : 4071;
2046 : 4071;
2047 : 4071;
2048 : 4071;
2049 : 4071;
2050 : 3798;
2051 : 3508;
2052 : 3508;
2053 : 3781;
2054 : 3235;
2055 : 1072;
2056 :    0;
2057 :    0;
2058 :    0;
2059 :    0;
2060 :    0;
2061 :    0;
2062 :    0;
2063 :    0;
2064 :    0;
2065 :    0;
2066 :    0;
2067 :    0;
2068 :    0;
2069 :    0;
2070 :    0;
2071 :    0;
2072 :    0;
2073 :  256;
2074 : 2146;
2075 : 3508;
2076 : 3781;
2077 : 3508;
2078 : 3508;
2079 : 3797;
2080 : 4071;
2081 : 4071;
2082 : 4071;
2083 : 4071;
2084 : 4071;
2085 : 3781;
2086 : 3202;
2087 : 3202;
2088 : 3202;
2089 : 3202;
2090 : 3781;
2091 : 4071;
2092 : 4071;
2093 : 4071;
2094 : 4071;
2095 : 4071;
2096 : 3798;
2097 : 3508;
2098 : 3508;
2099 : 3781;
2100 : 3764;
2101 : 2690;
2102 :  528;
2103 :    0;
2104 :    0;
2105 :    0;
2106 :    0;
2107 :    0;
2108 :    0;
2109 :    0;
2110 :    0;
2111 :    0;
2112 :    0;
2113 :    0;
2114 :    0;
2115 :    0;
2116 :    0;
2117 :    0;
2118 :    0;
2119 :    0;
2120 :    0;
2121 :    0;
2122 :    0;
2123 : 1072;
2124 : 2963;
2125 : 3780;
2126 : 3781;
2127 : 3508;
2128 : 3508;
2129 : 3525;
2130 : 3798;
2131 : 4070;
2132 : 4071;
2133 : 4070;
2134 : 3781;
2135 : 3781;
2136 : 3781;
2137 : 3781;
2138 : 4070;
2139 : 4071;
2140 : 4070;
2141 : 3798;
2142 : 3781;
2143 : 3508;
2144 : 3508;
2145 : 3781;
2146 : 3780;
2147 : 3219;
2148 : 1601;
2149 :    0;
2150 :    0;
2151 :    0;
2152 :    0;
2153 :    0;
2154 :    0;
2155 :    0;
2156 :    0;
2157 :    0;
2158 :    0;
2159 :    0;
2160 :    0;
2161 :    0;
2162 :    0;
2163 :    0;
2164 :    0;
2165 :    0;
2166 :    0;
2167 :    0;
2168 :    0;
2169 :    0;
2170 :    0;
2171 :    0;
2172 :    0;
2173 : 1601;
2174 : 2963;
2175 : 3764;
2176 : 3781;
2177 : 3524;
2178 : 3508;
2179 : 3508;
2180 : 3508;
2181 : 3508;
2182 : 3781;
2183 : 3781;
2184 : 3781;
2185 : 3781;
2186 : 3509;
2187 : 3508;
2188 : 3508;
2189 : 3508;
2190 : 3525;
2191 : 3781;
2192 : 3764;
2193 : 3219;
2194 : 1873;
2195 :  256;
2196 :    0;
2197 :    0;
2198 :    0;
2199 :    0;
2200 :    0;
2201 :    0;
2202 :    0;
2203 :    0;
2204 :    0;
2205 :    0;
2206 :    0;
2207 :    0;
2208 :    0;
2209 :    0;
2210 :    0;
2211 :    0;
2212 :    0;
2213 :    0;
2214 :    0;
2215 :    0;
2216 :    0;
2217 :    0;
2218 :    0;
2219 :    0;
2220 :    0;
2221 :    0;
2222 :    0;
2223 : 1072;
2224 : 2418;
2225 : 3235;
2226 : 3508;
2227 : 3780;
2228 : 3781;
2229 : 3781;
2230 : 3525;
2231 : 3508;
2232 : 3508;
2233 : 3525;
2234 : 3781;
2235 : 3781;
2236 : 3781;
2237 : 3764;
2238 : 3235;
2239 : 2674;
2240 : 1345;
2241 :  256;
2242 :    0;
2243 :    0;
2244 :    0;
2245 :    0;
2246 :    0;
2247 :    0;
2248 :    0;
2249 :    0;
2250 :    0;
2251 :    0;
2252 :    0;
2253 :    0;
2254 :    0;
2255 :    0;
2256 :    0;
2257 :    0;
2258 :    0;
2259 :    0;
2260 :    0;
2261 :    0;
2262 :    0;
2263 :    0;
2264 :    0;
2265 :    0;
2266 :    0;
2267 :    0;
2268 :    0;
2269 :    0;
2270 :    0;
2271 :    0;
2272 :    0;
2273 :    0;
2274 :  800;
2275 : 1345;
2276 : 2146;
2277 : 2690;
2278 : 2963;
2279 : 3219;
2280 : 3219;
2281 : 3219;
2282 : 2690;
2283 : 2146;
2284 : 1601;
2285 :  800;
2286 :  256;
2287 :    0;
2288 :    0;
2289 :    0;
2290 :    0;
2291 :    0;
2292 :    0;
2293 :    0;
2294 :    0;
2295 :    0;
2296 :    0;
2297 :    0;
2298 :    0;
2299 :    0;
2300 :    0;
2301 :    0;
2302 :    0;
2303 :    0;
END;